напишан
[(0.8297872340425532, 'филтери'), (0.8297872340425532, 'текст-процесорите'), (0.8297872340425532, 'табеларно')]

сопствен
[(0.975, 'филтери'), (0.975, 'текст-процесорите'), (0.975, 'табеларно')]

комуникација
[(0.9814814814814815, 'те'), (0.9814814814814815, 'помош'), (0.8582995951417004, 'хардверот')]

останати
[(0.967741935483871, 'функционирањето'), (0.967741935483871, 'три'), (0.967741935483871, 'составен')]

пакети
[(0.9203539823008849, 'корисникот'), (0.9043478260869565, 'претставува'), (0.7666666666666667, 'дели')]

наменети
[(0.9666666666666667, 'производи'), (0.7651006711409396, 'другите'), (0.7310344827586207, 'спаѓаат')]

документи
[(0.9714285714285714, 'целокупната'), (0.9714285714285714, 'уништат'), (0.9714285714285714, 'темната')]

бројните
[(0.9772727272727273, 'уредувачи'), (0.9772727272727273, 'телевизиски'), (0.9772727272727273, 'текстови')]

програмскиот
[(0.971830985915493, 'компајлерите'), (0.971830985915493, 'код'), (0.971830985915493, 'интерпретерите')]

симулации
[(0.975, 'филтери'), (0.975, 'текст-процесорите'), (0.975, 'табеларно')]

оперативен
[(0.9848484848484849, 'усогласува'), (0.9848484848484849, 'управување'), (0.9848484848484849, 'управуваат')]

обезбеди
[(0.9761904761904762, 'функција'), (0.9761904761904762, 'функционираат'), (0.9761904761904762, 'сметачките')]

конфигурациски
[(0.975, 'филтери'), (0.975, 'текст-процесорите'), (0.975, 'табеларно')]

работата
[(0.9848484848484849, 'усогласува'), (0.9848484848484849, 'управување'), (0.9848484848484849, 'управуваат')]

времето
[(0.9444444444444444, 'функционирање'), (0.9444444444444444, 'сметачи'), (0.9444444444444444, 'развојот')]

содржината
[(0.9848484848484849, 'усогласува'), (0.9848484848484849, 'управување'), (0.9848484848484849, 'управуваат')]

алатки
[(0.9245283018867925, 'јазици'), (0.9245283018867925, 'сочинуваат'), (0.9245283018867925, 'програмските')]

апликации
[(0.9285714285714286, 'тесно'), (0.9285714285714286, 'поврзани'), (0.9285714285714286, 'образовниот')]

зголемува
[(0.9583333333333334, 'стандард'), (0.9583333333333334, 'списокот'), (0.9583333333333334, 'софтверска')]

поврзуваат
[(0.972972972972973, 'читливост'), (0.972972972972973, 'чекор'), (0.972972972972973, 'целина')]

група
[(0.9285714285714286, 'програмирачкиот'), (0.9285714285714286, 'програмерите'), (0.9285714285714286, 'принцип')]

непрофесионално
[(0.975, 'филтери'), (0.975, 'текст-процесорите'), (0.975, 'табеларно')]

гледа
[(0.967741935483871, 'функционирањето'), (0.967741935483871, 'три'), (0.967741935483871, 'составен')]

линкерите
[(0.972972972972973, 'читливост'), (0.972972972972973, 'чекор'), (0.972972972972973, 'целина')]

пошта
[(0.9772727272727273, 'уредувачи'), (0.9772727272727273, 'телевизиски'), (0.9772727272727273, 'текстови')]

овозможување
[(0.9848484848484849, 'усогласува'), (0.9848484848484849, 'управување'), (0.9848484848484849, 'управуваат')]

внесување
[(0.9848484848484849, 'усогласува'), (0.9848484848484849, 'управување'), (0.9848484848484849, 'управуваат')]

дебагерите
[(0.9705882352941176, 'текстуалните'), (0.9705882352941176, 'следниве'), (0.9705882352941176, 'развојни')]

програмите
[(0.7229357798165138, 'програми'), (0.6753246753246753, 'пакети'), (0.6622950819672131, 'извршувањето')]

професионалните
[(0.967741935483871, 'функционирањето'), (0.967741935483871, 'три'), (0.967741935483871, 'составен')]

чекор-по-чекор
[(0.9166666666666666, 'последователни'), (0.9166666666666666, 'одредена'), (0.9166666666666666, 'одреден')]

развојни
[(0.9705882352941176, 'текстуалните'), (0.9705882352941176, 'следниве'), (0.9705882352941176, 'посредници')]

многу
[(0.974025974025974, 'содржина'), (0.6890756302521008, 'функција'), (0.6890756302521008, 'функционираат')]

содржина
[(0.974025974025974, 'многу'), (0.6890756302521008, 'функција'), (0.6890756302521008, 'функционираат')]

оперативните
[(0.9166666666666666, 'системите'), (0.9166666666666666, 'системи'), (0.9166666666666666, 'серверите')]

околината
[(0.975, 'филтери'), (0.975, 'текст-процесорите'), (0.975, 'табеларно')]

неколку
[(0.9714285714285714, 'целокупната'), (0.9714285714285714, 'уништат'), (0.9714285714285714, 'темната')]

програмерски
[(0.9230769230769231, 'способности'), (0.9230769230769231, 'создавање'), (0.9230769230769231, 'системското')]

сметач
[(0.9848484848484849, 'усогласува'), (0.9848484848484849, 'управување'), (0.9848484848484849, 'управуваат')]

разбирлив
[(0.972972972972973, 'читливост'), (0.972972972972973, 'чекор'), (0.972972972972973, 'целина')]

посредник
[(0.9444444444444444, 'функционирање'), (0.9444444444444444, 'сметачи'), (0.9444444444444444, 'развојот')]

програмирањето
[(0.9714285714285714, 'целокупната'), (0.9714285714285714, 'уништат'), (0.9714285714285714, 'темната')]

извршување
[(0.9767441860465116, 'пресметувања'), (0.9767441860465116, 'пресметки'), (0.9767441860465116, 'задачи')]

машини
[(0.9761904761904762, 'функција'), (0.9761904761904762, 'функционираат'), (0.9761904761904762, 'сметачките')]

основната
[(0.9761904761904762, 'функција'), (0.9761904761904762, 'функционираат'), (0.9761904761904762, 'сметачките')]

скрипти
[(0.975, 'филтери'), (0.975, 'текст-процесорите'), (0.975, 'табеларно')]

попознати
[(0.975, 'филтери'), (0.975, 'текст-процесорите'), (0.975, 'табеларно')]

апликативниот
[(0.7419354838709677, 'стандард'), (0.7419354838709677, 'списокот'), (0.7419354838709677, 'софтверска')]

програмирање
[(0.8148148148148148, 'текстуалните'), (0.8148148148148148, 'следниве'), (0.8148148148148148, 'развојни')]

промени
[(0.9761904761904762, 'функција'), (0.9761904761904762, 'функционираат'), (0.9761904761904762, 'сметачките')]

јазик
[(0.8372093023255814, 'читливост'), (0.8372093023255814, 'чекор'), (0.8372093023255814, 'целина')]

меморискиот
[(0.9714285714285714, 'целокупната'), (0.9714285714285714, 'уништат'), (0.9714285714285714, 'темната')]

интерпретираат
[(0.972972972972973, 'читливост'), (0.972972972972973, 'чекор'), (0.972972972972973, 'целина')]

промена
[(0.9848484848484849, 'усогласува'), (0.9848484848484849, 'управување'), (0.9848484848484849, 'управуваат')]

програми
[(0.7229357798165138, 'програмите'), (0.6062846580406654, 'софтверски'), (0.5877551020408164, 'сметачот')]

индивидуален
[(0.975, 'филтери'), (0.975, 'текст-процесорите'), (0.975, 'табеларно')]

табеларно
[(0.975, 'филтери'), (0.975, 'текст-процесорите'), (0.975, 'состои')]

додаток
[(0.975, 'филтери'), (0.975, 'текст-процесорите'), (0.975, 'табеларно')]

базите
[(0.9285714285714286, 'тесно'), (0.9285714285714286, 'поврзани'), (0.9285714285714286, 'образовниот')]

работење
[(0.75, 'филтери'), (0.75, 'текст-процесорите'), (0.75, 'табеларно')]

конечно
[(0.9761904761904762, 'функција'), (0.9761904761904762, 'функционираат'), (0.9761904761904762, 'сметачките')]

поедноставно
[(0.9772727272727273, 'уредувачи'), (0.9772727272727273, 'телевизиски'), (0.9772727272727273, 'текстови')]

детална
[(0.967741935483871, 'функционирањето'), (0.967741935483871, 'три'), (0.967741935483871, 'составен')]

елемент
[(0.9285714285714286, 'програмирачкиот'), (0.9285714285714286, 'програмерите'), (0.9285714285714286, 'принцип')]

читливост
[(0.972972972972973, 'чекор'), (0.972972972972973, 'целина'), (0.972972972972973, 'цел')]

операции
[(0.9848484848484849, 'усогласува'), (0.9848484848484849, 'управување'), (0.9848484848484849, 'управуваат')]

спомнал
[(0.9230769230769231, 'терминот'), (0.9230769230769231, 'современата'), (0.9230769230769231, 'првпат')]

канцелариските
[(0.9285714285714286, 'тесно'), (0.9285714285714286, 'поврзани'), (0.9285714285714286, 'образовниот')]

интелигенција
[(0.9230769230769231, 'терминот'), (0.9230769230769231, 'спомнал'), (0.9230769230769231, 'современата')]

извори
[(0.9848484848484849, 'усогласува'), (0.9848484848484849, 'управување'), (0.9848484848484849, 'управуваат')]

сметачи
[(0.9444444444444444, 'функционирање'), (0.9444444444444444, 'развојот'), (0.9444444444444444, 'претставувал')]

сместување
[(0.9848484848484849, 'усогласува'), (0.9848484848484849, 'управување'), (0.9848484848484849, 'управуваат')]

задолжителна
[(0.9848484848484849, 'усогласува'), (0.9848484848484849, 'управување'), (0.9848484848484849, 'управуваат')]

управуваат
[(0.9848484848484849, 'усогласува'), (0.9848484848484849, 'управување'), (0.9848484848484849, 'тестираат')]

можат
[(0.6605504587155964, 'читливост'), (0.6605504587155964, 'чекор'), (0.6605504587155964, 'целина')]

хардверот
[(0.8582995951417004, 'те'), (0.8582995951417004, 'помош'), (0.8582995951417004, 'комуникација')]

задава
[(0.9444444444444444, 'функционирање'), (0.9444444444444444, 'сметачи'), (0.9444444444444444, 'развојот')]

поттикне
[(0.9761904761904762, 'функција'), (0.9761904761904762, 'функционираат'), (0.9761904761904762, 'сметачките')]

усогласува
[(0.9848484848484849, 'управување'), (0.9848484848484849, 'управуваат'), (0.9848484848484849, 'тестираат')]

првите
[(0.9444444444444444, 'функционирање'), (0.9444444444444444, 'сметачи'), (0.9444444444444444, 'развојот')]

идните
[(0.9285714285714286, 'програмирачкиот'), (0.9285714285714286, 'програмерите'), (0.9285714285714286, 'принцип')]

специјални
[(0.9772727272727273, 'уредувачи'), (0.9772727272727273, 'телевизиски'), (0.9772727272727273, 'текстови')]

независно
[(0.972972972972973, 'читливост'), (0.972972972972973, 'чекор'), (0.972972972972973, 'целина')]

архитекура
[(0.9166666666666666, 'чекор-по-чекор'), (0.9166666666666666, 'последователни'), (0.9166666666666666, 'одредена')]

чекор
[(0.972972972972973, 'читливост'), (0.972972972972973, 'целина'), (0.972972972972973, 'цел')]

името
[(0.9761904761904762, 'функција'), (0.9761904761904762, 'функционираат'), (0.9761904761904762, 'сметачките')]

појавиле
[(0.9444444444444444, 'функционирање'), (0.9444444444444444, 'сметачи'), (0.9444444444444444, 'развојот')]

следна
[(0.8888888888888888, 'прифатена'), (0.8888888888888888, 'класификација'), (0.8888888888888888, 'втората')]

малечки
[(0.9714285714285714, 'целокупната'), (0.9714285714285714, 'уништат'), (0.9714285714285714, 'темната')]

софтверските
[(0.6842105263157895, 'филтери'), (0.6842105263157895, 'текст-процесорите'), (0.6842105263157895, 'табеларно')]

изврши
[(0.9761904761904762, 'функција'), (0.9761904761904762, 'функционираат'), (0.9761904761904762, 'сметачките')]

печатач
[(0.9848484848484849, 'усогласува'), (0.9848484848484849, 'управување'), (0.9848484848484849, 'управуваат')]

системски
[(0.8172043010752689, 'поделба'), (0.7142857142857143, 'функционирањето'), (0.7142857142857143, 'три')]

издаваштво
[(0.9772727272727273, 'уредувачи'), (0.9772727272727273, 'телевизиски'), (0.9772727272727273, 'текстови')]

интегрираните
[(0.9705882352941176, 'текстуалните'), (0.9705882352941176, 'следниве'), (0.9705882352941176, 'развојни')]

модификатори
[(0.975, 'филтери'), (0.975, 'текст-процесорите'), (0.975, 'табеларно')]

софтвер
[(1.0, 'слон'), (0.4619289340101523, 'различни'), (0.4497354497354497, 'софтверските')]

новите
[(0.9583333333333334, 'стандард'), (0.9583333333333334, 'списокот'), (0.9583333333333334, 'софтверска')]

надградува
[(0.9583333333333334, 'стандард'), (0.9583333333333334, 'списокот'), (0.9583333333333334, 'софтверска')]

системи
[(0.9166666666666666, 'системите'), (0.9166666666666666, 'серверите'), (0.9166666666666666, 'прозорци')]

серверите
[(0.9166666666666666, 'системите'), (0.9166666666666666, 'системи'), (0.9166666666666666, 'прозорци')]

поврзувачите
[(0.9705882352941176, 'текстуалните'), (0.9705882352941176, 'следниве'), (0.9705882352941176, 'развојни')]

вирусите
[(0.9714285714285714, 'целокупната'), (0.9714285714285714, 'уништат'), (0.9714285714285714, 'темната')]

олеснуваат
[(0.9848484848484849, 'усогласува'), (0.9848484848484849, 'управување'), (0.9848484848484849, 'управуваат')]

следниве
[(0.9705882352941176, 'текстуалните'), (0.9705882352941176, 'развојни'), (0.9705882352941176, 'посредници')]

графика
[(0.9772727272727273, 'уредувачи'), (0.9772727272727273, 'телевизиски'), (0.9772727272727273, 'текстови')]

податоците
[(0.8666666666666667, 'усогласува'), (0.8666666666666667, 'управување'), (0.8666666666666667, 'управуваат')]

едитори
[(0.9705882352941176, 'текстуалните'), (0.9705882352941176, 'следниве'), (0.9705882352941176, 'развојни')]

олеснува
[(0.975, 'филтери'), (0.975, 'текст-процесорите'), (0.975, 'табеларно')]

користени
[(0.9705882352941176, 'апликативни'), (0.7678571428571429, 'уредувачи'), (0.7678571428571429, 'телевизиски')]

вештачката
[(0.9230769230769231, 'терминот'), (0.9230769230769231, 'спомнал'), (0.9230769230769231, 'современата')]

погонувачите
[(0.9166666666666666, 'системите'), (0.9166666666666666, 'системи'), (0.9166666666666666, 'серверите')]

остварува
[(0.9848484848484849, 'усогласува'), (0.9848484848484849, 'управување'), (0.9848484848484849, 'управуваат')]

зависно
[(0.9444444444444444, 'функционирање'), (0.9444444444444444, 'сметачи'), (0.9444444444444444, 'развојот')]

заедничко
[(0.967741935483871, 'функционирањето'), (0.967741935483871, 'три'), (0.967741935483871, 'составен')]

потсистем
[(0.9761904761904762, 'функција'), (0.9761904761904762, 'функционираат'), (0.9761904761904762, 'сметачките')]

развојот
[(0.9444444444444444, 'функционирање'), (0.9444444444444444, 'сметачи'), (0.9444444444444444, 'претставувал')]

конфигурираат
[(0.9848484848484849, 'усогласува'), (0.9848484848484849, 'управување'), (0.9848484848484849, 'управуваат')]

последователни
[(0.9166666666666666, 'чекор-по-чекор'), (0.9166666666666666, 'одредена'), (0.9166666666666666, 'одреден')]

криптографија
[(0.9230769230769231, 'терминот'), (0.9230769230769231, 'спомнал'), (0.9230769230769231, 'современата')]

телевизиски
[(0.9772727272727273, 'уредувачи'), (0.9772727272727273, 'текстови'), (0.9772727272727273, 'табеларни')]

датотеки
[(0.975, 'филтери'), (0.975, 'текст-процесорите'), (0.975, 'табеларно')]

овозможувал
[(0.9444444444444444, 'функционирање'), (0.9444444444444444, 'сметачи'), (0.9444444444444444, 'развојот')]

обичните
[(0.9772727272727273, 'уредувачи'), (0.9772727272727273, 'телевизиски'), (0.9772727272727273, 'текстови')]

начини
[(0.975, 'филтери'), (0.975, 'текст-процесорите'), (0.975, 'табеларно')]

овозможи
[(0.6875, 'програма'), (0.6776859504132231, 'функција'), (0.6776859504132231, 'функционираат')]

движења
[(0.975, 'филтери'), (0.975, 'текст-процесорите'), (0.975, 'табеларно')]

податоци
[(0.9655172413793104, 'игри'), (0.8431372549019608, 'уредувачи'), (0.8431372549019608, 'телевизиски')]

злонамерни
[(0.9714285714285714, 'целокупната'), (0.9714285714285714, 'уништат'), (0.9714285714285714, 'темната')]

бази
[(0.9772727272727273, 'уредувачи'), (0.9772727272727273, 'телевизиски'), (0.9772727272727273, 'текстови')]

1957
[(0.9230769230769231, 'терминот'), (0.9230769230769231, 'спомнал'), (0.9230769230769231, 'современата')]

програмските
[(0.98, 'јазици'), (0.98, 'сочинуваат'), (0.98, 'апликативните')]

правење
[(0.9772727272727273, 'уредувачи'), (0.9772727272727273, 'телевизиски'), (0.9772727272727273, 'текстови')]

вика
[(0.9230769230769231, 'способности'), (0.9230769230769231, 'создавање'), (0.9230769230769231, 'системското')]

координираат
[(0.967741935483871, 'функционирањето'), (0.967741935483871, 'три'), (0.967741935483871, 'составен')]

изворен
[(0.971830985915493, 'програмскиот'), (0.971830985915493, 'компајлерите'), (0.971830985915493, 'код')]

преведуваат
[(0.972972972972973, 'читливост'), (0.972972972972973, 'чекор'), (0.972972972972973, 'целина')]

луѓето
[(0.9714285714285714, 'целокупната'), (0.9714285714285714, 'уништат'), (0.9714285714285714, 'темната')]

помош
[(0.9814814814814815, 'те'), (0.9814814814814815, 'комуникација'), (0.8582995951417004, 'хардверот')]

користење
[(0.8470588235294118, 'олеснат'), (0.8404669260700389, 'сметачот'), (0.7386363636363636, 'усогласува')]

емисии
[(0.9772727272727273, 'уредувачи'), (0.9772727272727273, 'телевизиски'), (0.9772727272727273, 'текстови')]

пресметувања
[(0.9767441860465116, 'пресметки'), (0.9767441860465116, 'извршување'), (0.9767441860465116, 'задачи')]

сместени
[(0.9848484848484849, 'усогласува'), (0.9848484848484849, 'управување'), (0.9848484848484849, 'управуваат')]

комуникацијата
[(0.9848484848484849, 'усогласува'), (0.9848484848484849, 'управување'), (0.9848484848484849, 'управуваат')]

оперативниот
[(0.9848484848484849, 'усогласува'), (0.9848484848484849, 'управување'), (0.9848484848484849, 'управуваат')]

страници
[(0.9772727272727273, 'уредувачи'), (0.9772727272727273, 'телевизиски'), (0.9772727272727273, 'текстови')]

списокот
[(0.9583333333333334, 'стандард'), (0.9583333333333334, 'софтверска'), (0.9583333333333334, 'произведува')]

поелементарни
[(0.967741935483871, 'функционирањето'), (0.967741935483871, 'три'), (0.967741935483871, 'составен')]

една
[(0.972972972972973, 'читливост'), (0.972972972972973, 'чекор'), (0.972972972972973, 'целина')]

стартува
[(0.9848484848484849, 'усогласува'), (0.9848484848484849, 'управување'), (0.9848484848484849, 'управуваат')]

филтери
[(0.975, 'текст-процесорите'), (0.975, 'табеларно'), (0.975, 'состои')]

апликативен
[(0.6153846153846154, 'следна'), (0.6153846153846154, 'прифатена'), (0.6153846153846154, 'класификација')]

стандард
[(0.9583333333333334, 'списокот'), (0.9583333333333334, 'софтверска'), (0.9583333333333334, 'произведува')]

целокупната
[(0.9714285714285714, 'уништат'), (0.9714285714285714, 'темната'), (0.9714285714285714, 'страна')]

делови
[(0.75, 'функционирањето'), (0.75, 'три'), (0.75, 'составен')]

терминот
[(0.9230769230769231, 'спомнал'), (0.9230769230769231, 'современата'), (0.9230769230769231, 'првпат')]

преведување
[(0.972972972972973, 'читливост'), (0.972972972972973, 'чекор'), (0.972972972972973, 'целина')]

извршувањето
[(0.9805825242718447, 'директно'), (0.8145161290322581, 'програма'), (0.808, 'сметачот')]

познавање
[(0.9230769230769231, 'способности'), (0.9230769230769231, 'создавање'), (0.9230769230769231, 'системското')]

едиторите
[(0.9705882352941176, 'текстуалните'), (0.9705882352941176, 'следниве'), (0.9705882352941176, 'развојни')]

компајлерите
[(0.971830985915493, 'програмскиот'), (0.971830985915493, 'код'), (0.971830985915493, 'интерпретерите')]

најзначајната
[(0.9285714285714286, 'програмирачкиот'), (0.9285714285714286, 'програмерите'), (0.9285714285714286, 'принцип')]

развивање
[(0.975, 'филтери'), (0.975, 'текст-процесорите'), (0.975, 'табеларно')]

код
[(0.971830985915493, 'програмскиот'), (0.971830985915493, 'компајлерите'), (0.971830985915493, 'интерпретерите')]

претходната
[(0.967741935483871, 'функционирањето'), (0.967741935483871, 'три'), (0.967741935483871, 'составен')]

програмирачкиот
[(0.9285714285714286, 'програмерите'), (0.9285714285714286, 'принцип'), (0.9285714285714286, 'првиот')]

таканаречениот
[(0.9848484848484849, 'усогласува'), (0.9848484848484849, 'управување'), (0.9848484848484849, 'управуваат')]

базирани
[(0.9166666666666666, 'системите'), (0.9166666666666666, 'системи'), (0.9166666666666666, 'серверите')]

основоположникот
[(0.9230769230769231, 'терминот'), (0.9230769230769231, 'спомнал'), (0.9230769230769231, 'современата')]

системскиот
[(0.8108108108108109, 'функционирањето'), (0.8108108108108109, 'три'), (0.8108108108108109, 'составен')]

деловите
[(0.972972972972973, 'читливост'), (0.972972972972973, 'чекор'), (0.972972972972973, 'целина')]

целина
[(0.972972972972973, 'читливост'), (0.972972972972973, 'чекор'), (0.972972972972973, 'цел')]

групи
[(0.979381443298969, 'систем'), (0.979381443298969, 'контролираат'), (0.9134615384615384, 'услужни')]

сметачкиот
[(0.967741935483871, 'функционирањето'), (0.967741935483871, 'три'), (0.967741935483871, 'составен')]

додатоци
[(0.8048780487804879, 'текстуалните'), (0.8048780487804879, 'следниве'), (0.8048780487804879, 'развојни')]

овозможат
[(0.9848484848484849, 'усогласува'), (0.9848484848484849, 'управување'), (0.9848484848484849, 'управуваат')]

множеството
[(0.9761904761904762, 'функција'), (0.9761904761904762, 'функционираат'), (0.9761904761904762, 'сметачките')]

контролираат
[(0.979381443298969, 'систем'), (0.979381443298969, 'групи'), (0.9134615384615384, 'услужни')]

име
[(0.967741935483871, 'функционирањето'), (0.967741935483871, 'три'), (0.967741935483871, 'составен')]

игри
[(0.9655172413793104, 'податоци'), (0.8431372549019608, 'уредувачи'), (0.8431372549019608, 'телевизиски')]

софтверска
[(0.9583333333333334, 'стандард'), (0.9583333333333334, 'списокот'), (0.9583333333333334, 'произведува')]

освен
[(0.7976878612716763, 'програмскиот'), (0.7976878612716763, 'компајлерите'), (0.7976878612716763, 'код')]

развивачи
[(0.7894736842105263, 'функционирањето'), (0.7894736842105263, 'три'), (0.7894736842105263, 'составен')]

користењето
[(0.8297872340425532, 'филтери'), (0.8297872340425532, 'текст-процесорите'), (0.8297872340425532, 'табеларно')]

сметачот
[(0.8404669260700389, 'користење'), (0.808, 'извршувањето'), (0.808, 'директно')]

сочинуваат
[(0.98, 'јазици'), (0.98, 'програмските'), (0.98, 'апликативните')]

вируси
[(0.9746835443037974, 'работењето'), (0.9746835443037974, 'заштита'), (0.6991869918699187, 'уредувачи')]

сметачките
[(0.9761904761904762, 'функција'), (0.9761904761904762, 'функционираат'), (0.9761904761904762, 'процеси')]

дефинирал
[(0.9230769230769231, 'терминот'), (0.9230769230769231, 'спомнал'), (0.9230769230769231, 'современата')]

функционирањето
[(0.967741935483871, 'три'), (0.967741935483871, 'составен'), (0.967741935483871, 'сметачкиот')]

посредници
[(0.9705882352941176, 'текстуалните'), (0.9705882352941176, 'следниве'), (0.9705882352941176, 'развојни')]

единствена
[(0.9714285714285714, 'целокупната'), (0.9714285714285714, 'уништат'), (0.9714285714285714, 'темната')]

создадат
[(0.972972972972973, 'читливост'), (0.972972972972973, 'чекор'), (0.972972972972973, 'целина')]

произведува
[(0.9583333333333334, 'стандард'), (0.9583333333333334, 'списокот'), (0.9583333333333334, 'софтверска')]

три
[(0.967741935483871, 'функционирањето'), (0.967741935483871, 'составен'), (0.967741935483871, 'сметачкиот')]

напишани
[(0.8478260869565217, 'филтери'), (0.8478260869565217, 'текст-процесорите'), (0.8478260869565217, 'табеларно')]

одреден
[(0.9166666666666666, 'чекор-по-чекор'), (0.9166666666666666, 'последователни'), (0.9166666666666666, 'одредена')]

спаѓаат
[(0.7310344827586207, 'производи'), (0.7310344827586207, 'наменети'), (0.6976744186046512, 'функционирањето')]

темната
[(0.9714285714285714, 'целокупната'), (0.9714285714285714, 'уништат'), (0.9714285714285714, 'страна')]

дели
[(0.9285714285714286, 'усогласува'), (0.9285714285714286, 'управување'), (0.9285714285714286, 'управуваат')]

создавање
[(0.9230769230769231, 'способности'), (0.9230769230769231, 'системското'), (0.9230769230769231, 'системско')]

втората
[(0.8888888888888888, 'следна'), (0.8888888888888888, 'прифатена'), (0.8888888888888888, 'класификација')]

функционирање
[(0.9444444444444444, 'сметачи'), (0.9444444444444444, 'развојот'), (0.9444444444444444, 'претставувал')]

процеси
[(0.9761904761904762, 'функција'), (0.9761904761904762, 'функционираат'), (0.9761904761904762, 'сметачките')]

компании
[(0.9583333333333334, 'стандард'), (0.9583333333333334, 'списокот'), (0.9583333333333334, 'софтверска')]

образовниот
[(0.9285714285714286, 'тесно'), (0.9285714285714286, 'поврзани'), (0.9285714285714286, 'канцелариските')]

напор
[(0.9761904761904762, 'функција'), (0.9761904761904762, 'функционираат'), (0.9761904761904762, 'сметачките')]

текстови
[(0.9772727272727273, 'уредувачи'), (0.9772727272727273, 'телевизиски'), (0.9772727272727273, 'табеларни')]

работењето
[(0.9746835443037974, 'заштита'), (0.9746835443037974, 'вируси'), (0.6991869918699187, 'уредувачи')]

асемблер
[(0.9705882352941176, 'текстуалните'), (0.9705882352941176, 'следниве'), (0.9705882352941176, 'развојни')]

класификација
[(0.8888888888888888, 'следна'), (0.8888888888888888, 'прифатена'), (0.8888888888888888, 'втората')]

функција
[(0.9761904761904762, 'функционираат'), (0.9761904761904762, 'сметачките'), (0.9761904761904762, 'процеси')]

принцип
[(0.9285714285714286, 'програмирачкиот'), (0.9285714285714286, 'програмерите'), (0.9285714285714286, 'првиот')]

функции
[(0.896551724137931, 'усогласува'), (0.896551724137931, 'управување'), (0.896551724137931, 'управуваат')]

безопасни
[(0.9714285714285714, 'целокупната'), (0.9714285714285714, 'уништат'), (0.9714285714285714, 'темната')]

цел
[(0.972972972972973, 'читливост'), (0.972972972972973, 'чекор'), (0.972972972972973, 'целина')]

околини
[(0.9705882352941176, 'текстуалните'), (0.9705882352941176, 'следниве'), (0.9705882352941176, 'развојни')]

верзија
[(0.972972972972973, 'читливост'), (0.972972972972973, 'чекор'), (0.972972972972973, 'целина')]

електронска
[(0.9772727272727273, 'уредувачи'), (0.9772727272727273, 'телевизиски'), (0.9772727272727273, 'текстови')]

апликативни
[(0.9705882352941176, 'користени'), (0.7678571428571429, 'уредувачи'), (0.7678571428571429, 'телевизиски')]

задача
[(0.9848484848484849, 'усогласува'), (0.9848484848484849, 'управување'), (0.9848484848484849, 'управуваат')]

вклучувањето
[(0.9848484848484849, 'усогласува'), (0.9848484848484849, 'управување'), (0.9848484848484849, 'управуваат')]

дел
[(0.967741935483871, 'функционирањето'), (0.967741935483871, 'три'), (0.967741935483871, 'составен')]

компјутерското
[(0.9705882352941176, 'текстуалните'), (0.9705882352941176, 'следниве'), (0.9705882352941176, 'развојни')]

најважните
[(0.9848484848484849, 'усогласува'), (0.9848484848484849, 'управување'), (0.9848484848484849, 'управуваат')]

запознаваат
[(0.9285714285714286, 'програмирачкиот'), (0.9285714285714286, 'програмерите'), (0.9285714285714286, 'принцип')]

листи
[(0.9166666666666666, 'чекор-по-чекор'), (0.9166666666666666, 'последователни'), (0.9166666666666666, 'одредена')]

деловниот
[(0.9285714285714286, 'тесно'), (0.9285714285714286, 'поврзани'), (0.9285714285714286, 'образовниот')]

датотеките
[(0.9848484848484849, 'усогласува'), (0.9848484848484849, 'управување'), (0.9848484848484849, 'управуваат')]

функционираат
[(0.9761904761904762, 'функција'), (0.9761904761904762, 'сметачките'), (0.9761904761904762, 'процеси')]

работи
[(0.972972972972973, 'читливост'), (0.972972972972973, 'чекор'), (0.972972972972973, 'целина')]

заштита
[(0.9746835443037974, 'работењето'), (0.9746835443037974, 'вируси'), (0.6991869918699187, 'уредувачи')]

пишување
[(0.9705882352941176, 'текстуалните'), (0.9705882352941176, 'следниве'), (0.9705882352941176, 'развојни')]

тесно
[(0.9285714285714286, 'поврзани'), (0.9285714285714286, 'образовниот'), (0.9285714285714286, 'канцелариските')]

неверојатно
[(0.8333333333333334, 'појавата'), (0.8333333333333334, 'поттикнат'), (0.42857142857142855, 'платформа')]

деловно
[(0.9583333333333334, 'стандард'), (0.9583333333333334, 'списокот'), (0.9583333333333334, 'софтверска')]

анимациски
[(0.975, 'филтери'), (0.975, 'текст-процесорите'), (0.975, 'табеларно')]

компјутерските
[(0.7540983606557377, 'додатоци'), (0.6111111111111112, 'текстуалните'), (0.6111111111111112, 'следниве')]

систем
[(0.979381443298969, 'контролираат'), (0.979381443298969, 'групи'), (0.9134615384615384, 'услужни')]

постојат
[(0.9714285714285714, 'целокупната'), (0.9714285714285714, 'уништат'), (0.9714285714285714, 'темната')]

користат
[(0.6991150442477876, 'најчесто'), (0.6929824561403509, 'сметачот'), (0.688, 'уредувачи')]

сметачите
[(0.9772727272727273, 'уредувачи'), (0.9772727272727273, 'телевизиски'), (0.9772727272727273, 'текстови')]

аспект
[(0.7222222222222222, 'програмирачкиот'), (0.7222222222222222, 'програмерите'), (0.7222222222222222, 'принцип')]

софтверски
[(0.6928104575163399, 'те'), (0.6928104575163399, 'помош'), (0.6928104575163399, 'комуникација')]

воведување
[(0.975, 'филтери'), (0.975, 'текст-процесорите'), (0.975, 'табеларно')]

прифатена
[(0.8888888888888888, 'следна'), (0.8888888888888888, 'класификација'), (0.8888888888888888, 'втората')]

добри
[(0.9230769230769231, 'способности'), (0.9230769230769231, 'создавање'), (0.9230769230769231, 'системското')]

корисниците
[(0.9848484848484849, 'усогласува'), (0.9848484848484849, 'управување'), (0.9848484848484849, 'управуваат')]

претставувал
[(0.9444444444444444, 'функционирање'), (0.9444444444444444, 'сметачи'), (0.9444444444444444, 'развојот')]

појавата
[(0.8333333333333334, 'поттикнат'), (0.8333333333333334, 'неверојатно'), (0.42857142857142855, 'платформа')]

антивирус
[(0.9714285714285714, 'целокупната'), (0.9714285714285714, 'уништат'), (0.9714285714285714, 'темната')]

прикажување
[(0.9848484848484849, 'усогласува'), (0.9848484848484849, 'управување'), (0.9848484848484849, 'управуваат')]

наречен
[(0.9761904761904762, 'функција'), (0.9761904761904762, 'функционираат'), (0.9761904761904762, 'сметачките')]

уредувачи
[(0.9772727272727273, 'телевизиски'), (0.9772727272727273, 'текстови'), (0.9772727272727273, 'табеларни')]

софтверот
[(0.7423312883435583, 'претставува'), (0.7331378299120235, 'хардверот'), (0.7204968944099379, 'корисникот')]

елементи
[(0.9705882352941176, 'текстуалните'), (0.9705882352941176, 'следниве'), (0.9705882352941176, 'развојни')]

слон
[(1.0, 'софтвер'), (0.4619289340101523, 'различни'), (0.4497354497354497, 'софтверските')]

персонално
[(0.9772727272727273, 'уредувачи'), (0.9772727272727273, 'телевизиски'), (0.9772727272727273, 'текстови')]

прво
[(0.9714285714285714, 'целокупната'), (0.9714285714285714, 'уништат'), (0.9714285714285714, 'темната')]

програмерите
[(0.9285714285714286, 'програмирачкиот'), (0.9285714285714286, 'принцип'), (0.9285714285714286, 'првиот')]

надополнуваат
[(0.975, 'филтери'), (0.975, 'текст-процесорите'), (0.975, 'табеларно')]

те
[(0.9814814814814815, 'помош'), (0.9814814814814815, 'комуникација'), (0.8582995951417004, 'хардверот')]

пакет
[(0.9583333333333334, 'стандард'), (0.9583333333333334, 'списокот'), (0.9583333333333334, 'софтверска')]

апликативните
[(0.98, 'јазици'), (0.98, 'сочинуваат'), (0.98, 'програмските')]

статистички
[(0.9772727272727273, 'уредувачи'), (0.9772727272727273, 'телевизиски'), (0.9772727272727273, 'текстови')]

состои
[(0.975, 'филтери'), (0.975, 'текст-процесорите'), (0.975, 'табеларно')]

овозможуваат
[(0.9772727272727273, 'уредувачи'), (0.9772727272727273, 'телевизиски'), (0.9772727272727273, 'текстови')]

други
[(0.9444444444444444, 'функционирање'), (0.9444444444444444, 'сметачи'), (0.9444444444444444, 'развојот')]

игрите
[(0.975, 'филтери'), (0.975, 'текст-процесорите'), (0.975, 'табеларно')]

конкретни
[(0.9772727272727273, 'уредувачи'), (0.9772727272727273, 'телевизиски'), (0.9772727272727273, 'текстови')]

корисникот
[(0.9203539823008849, 'пакети'), (0.860655737704918, 'претставува'), (0.7422680412371134, 'дели')]

првпат
[(0.9230769230769231, 'терминот'), (0.9230769230769231, 'спомнал'), (0.9230769230769231, 'современата')]

меморија
[(0.9848484848484849, 'усогласува'), (0.9848484848484849, 'управување'), (0.9848484848484849, 'управуваат')]

врши
[(0.972972972972973, 'читливост'), (0.972972972972973, 'чекор'), (0.972972972972973, 'целина')]

резултат
[(0.9714285714285714, 'целокупната'), (0.9714285714285714, 'уништат'), (0.9714285714285714, 'темната')]

екран
[(0.9848484848484849, 'усогласува'), (0.9848484848484849, 'управување'), (0.9848484848484849, 'управуваат')]

јазици
[(0.98, 'сочинуваат'), (0.98, 'програмските'), (0.98, 'апликативните')]

мали
[(0.975, 'филтери'), (0.975, 'текст-процесорите'), (0.975, 'табеларно')]

компајлираат
[(0.972972972972973, 'читливост'), (0.972972972972973, 'чекор'), (0.972972972972973, 'целина')]

системско
[(0.9230769230769231, 'способности'), (0.9230769230769231, 'создавање'), (0.9230769230769231, 'системското')]

задачи
[(0.9767441860465116, 'пресметувања'), (0.9767441860465116, 'пресметки'), (0.9767441860465116, 'извршување')]

основните
[(0.9230769230769231, 'терминот'), (0.9230769230769231, 'спомнал'), (0.9230769230769231, 'современата')]

табеларни
[(0.9772727272727273, 'уредувачи'), (0.9772727272727273, 'телевизиски'), (0.9772727272727273, 'текстови')]

одредена
[(0.9166666666666666, 'чекор-по-чекор'), (0.9166666666666666, 'последователни'), (0.9166666666666666, 'одреден')]

современата
[(0.9230769230769231, 'терминот'), (0.9230769230769231, 'спомнал'), (0.9230769230769231, 'првпат')]

составен
[(0.967741935483871, 'функционирањето'), (0.967741935483871, 'три'), (0.967741935483871, 'сметачкиот')]

системите
[(0.9166666666666666, 'системи'), (0.9166666666666666, 'серверите'), (0.9166666666666666, 'прозорци')]

контрола
[(0.9761904761904762, 'функција'), (0.9761904761904762, 'функционираат'), (0.9761904761904762, 'сметачките')]

активноста
[(0.9230769230769231, 'способности'), (0.9230769230769231, 'создавање'), (0.9230769230769231, 'системското')]

компајлерските
[(0.9705882352941176, 'текстуалните'), (0.9705882352941176, 'следниве'), (0.9705882352941176, 'развојни')]

различни
[(0.6612903225806451, 'функција'), (0.6612903225806451, 'функционираат'), (0.6612903225806451, 'сметачките')]

управување
[(0.9848484848484849, 'усогласува'), (0.9848484848484849, 'управуваат'), (0.9848484848484849, 'тестираат')]

текстуалните
[(0.9705882352941176, 'следниве'), (0.9705882352941176, 'развојни'), (0.9705882352941176, 'посредници')]

подразбира
[(0.845360824742268, 'функција'), (0.845360824742268, 'функционираат'), (0.845360824742268, 'сметачките')]

документирани
[(0.9772727272727273, 'уредувачи'), (0.9772727272727273, 'телевизиски'), (0.9772727272727273, 'текстови')]

текст-процесорите
[(0.975, 'филтери'), (0.975, 'табеларно'), (0.975, 'состои')]

способности
[(0.9230769230769231, 'создавање'), (0.9230769230769231, 'системското'), (0.9230769230769231, 'системско')]

инструкции
[(0.8541666666666666, 'функција'), (0.8541666666666666, 'функционираат'), (0.8541666666666666, 'сметачките')]

страна
[(0.9714285714285714, 'целокупната'), (0.9714285714285714, 'уништат'), (0.9714285714285714, 'темната')]

олеснат
[(0.8470588235294118, 'користење'), (0.7602739726027398, 'сметачот'), (0.6875, 'работењето')]

заедничка
[(0.972972972972973, 'читливост'), (0.972972972972973, 'чекор'), (0.972972972972973, 'целина')]

програма
[(0.8379446640316206, 'те'), (0.8379446640316206, 'помош'), (0.8379446640316206, 'комуникација')]

продукти
[(0.9761904761904762, 'функција'), (0.9761904761904762, 'функционираат'), (0.9761904761904762, 'сметачките')]

производи
[(0.9666666666666667, 'наменети'), (0.7651006711409396, 'другите'), (0.7310344827586207, 'спаѓаат')]

различните
[(0.967741935483871, 'функционирањето'), (0.967741935483871, 'три'), (0.967741935483871, 'составен')]

луѓе
[(0.9772727272727273, 'уредувачи'), (0.9772727272727273, 'телевизиски'), (0.9772727272727273, 'текстови')]

платформа
[(0.875, 'кориснички'), (0.56, 'апликативен'), (0.4666666666666667, 'аспект')]

напишана
[(0.9761904761904762, 'функција'), (0.9761904761904762, 'функционираат'), (0.9761904761904762, 'сметачките')]

најпознатата
[(0.9583333333333334, 'стандард'), (0.9583333333333334, 'списокот'), (0.9583333333333334, 'софтверска')]

првиот
[(0.9285714285714286, 'програмирачкиот'), (0.9285714285714286, 'програмерите'), (0.9285714285714286, 'принцип')]

поттикнат
[(0.8333333333333334, 'појавата'), (0.8333333333333334, 'неверојатно'), (0.42857142857142855, 'платформа')]

системското
[(0.9230769230769231, 'способности'), (0.9230769230769231, 'создавање'), (0.9230769230769231, 'системско')]

математичките
[(0.9772727272727273, 'уредувачи'), (0.9772727272727273, 'телевизиски'), (0.9772727272727273, 'текстови')]

секунди
[(0.9714285714285714, 'целокупната'), (0.9714285714285714, 'уништат'), (0.9714285714285714, 'темната')]

уништат
[(0.9714285714285714, 'целокупната'), (0.9714285714285714, 'темната'), (0.9714285714285714, 'страна')]

макроа
[(0.975, 'филтери'), (0.975, 'текст-процесорите'), (0.975, 'табеларно')]

важно
[(0.9772727272727273, 'уредувачи'), (0.9772727272727273, 'телевизиски'), (0.9772727272727273, 'текстови')]

оптимизатори
[(0.9705882352941176, 'текстуалните'), (0.9705882352941176, 'следниве'), (0.9705882352941176, 'развојни')]

контролни
[(0.9848484848484849, 'усогласува'), (0.9848484848484849, 'управување'), (0.9848484848484849, 'управуваат')]

компјутерска
[(0.9130434782608695, 'пресметувања'), (0.9130434782608695, 'пресметки'), (0.9130434782608695, 'извршување')]

поврзани
[(0.9285714285714286, 'тесно'), (0.9285714285714286, 'образовниот'), (0.9285714285714286, 'канцелариските')]

нејзината
[(0.9761904761904762, 'функција'), (0.9761904761904762, 'функционираат'), (0.9761904761904762, 'сметачките')]

тестираат
[(0.9848484848484849, 'усогласува'), (0.9848484848484849, 'управување'), (0.9848484848484849, 'управуваат')]

мал
[(0.9761904761904762, 'функција'), (0.9761904761904762, 'функционираат'), (0.9761904761904762, 'сметачките')]

едни
[(0.9848484848484849, 'усогласува'), (0.9848484848484849, 'управување'), (0.9848484848484849, 'управуваат')]

пресметки
[(0.9767441860465116, 'пресметувања'), (0.9767441860465116, 'извршување'), (0.9767441860465116, 'задачи')]

прозорци
[(0.9166666666666666, 'системите'), (0.9166666666666666, 'системи'), (0.9166666666666666, 'серверите')]

интернет
[(0.9772727272727273, 'уредувачи'), (0.9772727272727273, 'телевизиски'), (0.9772727272727273, 'текстови')]

консултирајте
[(0.9772727272727273, 'уредувачи'), (0.9772727272727273, 'телевизиски'), (0.9772727272727273, 'текстови')]

основни
[(0.9848484848484849, 'усогласува'), (0.9848484848484849, 'управување'), (0.9848484848484849, 'управуваат')]

помошници
[(0.9166666666666666, 'системите'), (0.9166666666666666, 'системи'), (0.9166666666666666, 'серверите')]

парсирањето
[(0.9705882352941176, 'текстуалните'), (0.9705882352941176, 'следниве'), (0.9705882352941176, 'развојни')]

може
[(0.9761904761904762, 'функција'), (0.9761904761904762, 'функционираат'), (0.9761904761904762, 'сметачките')]

другите
[(0.7651006711409396, 'производи'), (0.7651006711409396, 'наменети'), (0.723404255319149, 'целокупната')]

поделба
[(0.8450704225352113, 'функционирањето'), (0.8450704225352113, 'три'), (0.8450704225352113, 'составен')]

вклучува
[(0.65, 'тесно'), (0.65, 'поврзани'), (0.65, 'образовниот')]

пример
[(0.975, 'филтери'), (0.975, 'текст-процесорите'), (0.975, 'табеларно')]

куси
[(0.975, 'филтери'), (0.975, 'текст-процесорите'), (0.975, 'табеларно')]

извршна
[(0.972972972972973, 'читливост'), (0.972972972972973, 'чекор'), (0.972972972972973, 'целина')]

куќа
[(0.9583333333333334, 'стандард'), (0.9583333333333334, 'списокот'), (0.9583333333333334, 'софтверска')]

информатиката
[(0.9444444444444444, 'функционирање'), (0.9444444444444444, 'сметачи'), (0.9444444444444444, 'развојот')]

инструкциите
[(0.9444444444444444, 'функционирање'), (0.9444444444444444, 'сметачи'), (0.9444444444444444, 'развојот')]

услужни
[(0.9134615384615384, 'систем'), (0.9134615384615384, 'контролираат'), (0.9134615384615384, 'групи')]

викаат
[(0.967741935483871, 'функционирањето'), (0.967741935483871, 'три'), (0.967741935483871, 'составен')]

директно
[(0.9805825242718447, 'извршувањето'), (0.8145161290322581, 'програма'), (0.808, 'сметачот')]

програмски
[(0.7822878228782287, 'те'), (0.7822878228782287, 'помош'), (0.7822878228782287, 'комуникација')]

компјутерот
[(0.9761904761904762, 'функција'), (0.9761904761904762, 'функционираат'), (0.9761904761904762, 'сметачките')]

дијагностичките
[(0.9166666666666666, 'системите'), (0.9166666666666666, 'системи'), (0.9166666666666666, 'серверите')]

лепат
[(0.9714285714285714, 'целокупната'), (0.9714285714285714, 'уништат'), (0.9714285714285714, 'темната')]

интерпретерот
[(0.972972972972973, 'читливост'), (0.972972972972973, 'чекор'), (0.972972972972973, 'целина')]

претставува
[(0.9043478260869565, 'пакети'), (0.860655737704918, 'корисникот'), (0.7884615384615384, 'податоците')]

најчесто
[(0.6991150442477876, 'користат'), (0.6197183098591549, 'користени'), (0.6197183098591549, 'апликативни')]

кориснички
[(0.875, 'платформа'), (0.56, 'апликативен'), (0.4666666666666667, 'аспект')]

дуплицираат
[(0.9714285714285714, 'целокупната'), (0.9714285714285714, 'уништат'), (0.9714285714285714, 'темната')]

надворешната
[(0.9848484848484849, 'усогласува'), (0.9848484848484849, 'управување'), (0.9848484848484849, 'управуваат')]

излечат
[(0.9714285714285714, 'целокупната'), (0.9714285714285714, 'уништат'), (0.9714285714285714, 'темната')]

интерпретерите
[(0.971830985915493, 'програмскиот'), (0.971830985915493, 'компајлерите'), (0.971830985915493, 'код')]

постојано
[(0.9583333333333334, 'стандард'), (0.9583333333333334, 'списокот'), (0.9583333333333334, 'софтверска')]

медиум
[(0.9714285714285714, 'целокупната'), (0.9714285714285714, 'уништат'), (0.9714285714285714, 'темната')]

